{
    "meta": {
        "type": "planitems",
        "version": "1.0.0"
    },
    "startlocation": {
        "id": 1,
        "label": "Thuis",
        "street": "Petrus Campersingel 185",
        "zipcode": "9713AK",
        "city": "Groningen",
        "country": "Nederland",
        "description": null,
        "organisation_id": "c5b5f59b-3bf4-49aa-a144-c887c17120e4",
        "created_at": "2022-09-12T07:57:48.000000Z",
        "updated_at": "2022-09-12T07:57:48.000000Z"
    },
    "cells": [
        {
            "period": {
                "key": "9690ffbcc2702b682b8b7c44a877583e",
                "label": "2022-05-12",
                "date": "2022-05-12",
                "is_empty": true
            },
            "transport": {
                "key": "2a54dfdc33af755d949fec1cf12b1189",
                "label": "Eigen transport bakwagen",
                "map": true,
                "calc": false,
                "circ": false,
                "itemTime": 1,
                "overheadTime": 10,
                "total_item_time": 10,
                "is_empty": true,
                "selected": false,
                "total_time": 0
            },
            "locations": [],
            "orders": []
        },
        {
            "transport": {
                "key": "2a54dfdc33af755d949fec1cf12b1189",
                "label": "Eigen transport bakwagen",
                "map": false,
                "calc": false,
                "circ": false,
                "itemTime": 1,
                "overheadTime": 10,
                "total_item_time": 10,
                "noTransport": true,
                "selected": false,
                "total_time": 0
            },
            "period": {
                "key": "eb2f56465cef5eedd5bfa8107350f792",
                "label": "2022-05-11",
                "date": "2022-05-11",
                "is_empty": false
            },
            "locations": [],
            "orders": []
        },
        {
            "transport": {
                "key": "2a54dfdc33af755d949fec1cf12b1189",
                "label": "Eigen transport bakwagen",
                "map": false,
                "calc": false,
                "circ": false,
                "itemTime": 1,
                "overheadTime": 10,
                "total_item_time": 10,
                "noTransport": true,
                "selected": false,
                "total_time": 0
            },
            "period": {
                "key": "8a3279f1f4b5224b3f946768b55f5d2a",
                "label": "2022-05-13",
                "date": "2022-05-13",
                "is_empty": false
            },
            "locations": [],
            "orders": []
        },
        {
            "period": {
                "key": "9690ffbcc2702b682b8b7c44a877583e",
                "label": "2022-05-12",
                "date": "2022-05-12"
            },
            "transport": {
                "key": "608edb45ba85aac75025c349df4f805a",
                "label": "Eigen transport vrachtwagen",
                "map": false,
                "calc": false,
                "circ": false,
                "itemTime": 1,
                "overheadTime": 10,
                "total_item_time": 10,
                "is_empty": false,
                "selected": false,
                "total_time": 0
            },
            "locations": [],
            "orders": []
        },
        {
            "period": {
                "key": "eb2f56465cef5eedd5bfa8107350f792",
                "label": "2022-05-11",
                "date": "2022-05-11"
            },
            "transport": {
                "key": "608edb45ba85aac75025c349df4f805a",
                "label": "Eigen transport vrachtwagen",
                "map": false,
                "calc": false,
                "circ": false,
                "itemTime": 1,
                "overheadTime": 10,
                "total_item_time": 10,
                "selected": false,
                "total_time": null
            },
            "locations": [
                {
                    "address": {
                        "street": "van Harenstraat 1",
                        "zipcode": "5145 RH",
                        "city": "Waalwijk",
                        "country": "Nederland"
                    },
                    "orders": [
                        {
                            "code": "2022020995",
                            "customer": "De Badenman"
                        },
                        {
                            "code": "2022021351",
                            "customer": "De Badenman"
                        },
                        {
                            "code": "2022021320",
                            "customer": "De Badenman"
                        },
                        {
                            "code": "2022021573",
                            "customer": "De Badenman"
                        }
                    ],
                    "selected": false
                },
                {
                    "address": {
                        "street": "Collse Heide 2",
                        "zipcode": "5674 VN",
                        "city": "Nuenen",
                        "country": "Nederland"
                    },
                    "orders": [
                        {
                            "code": "2022021422",
                            "customer": "Smeulders Interieurgroep"
                        }
                    ],
                    "selected": false,
                    "overheadTime": 10,
                    "itemTime": 1
                },
                {
                    "address": {
                        "street": "De Nedervonder 21 ",
                        "zipcode": "5061 JP ",
                        "city": "Oisterwijk",
                        "country": "Nederland"
                    },
                    "orders": [
                        {
                            "code": "2022021478",
                            "customer": "Grando Middelburg B.V."
                        }
                    ],
                    "selected": false,
                    "overheadTime": 10,
                    "itemTime": 1
                },
                {
                    "address": {
                        "street": "Kanaalstraat 100 ",
                        "zipcode": "5104 AD ",
                        "city": "Dongen",
                        "country": "Nederland"
                    },
                    "orders": [
                        {
                            "code": "2022020890",
                            "customer": "Keukenhart B.V. (Puur Keukens)"
                        }
                    ],
                    "selected": false,
                    "overheadTime": 10,
                    "itemTime": 1
                },
                {
                    "address": {
                        "street": "Ambachtstraat 8a   ",
                        "zipcode": "7622 AP ",
                        "city": "Borne",
                        "country": "Nederland"
                    },
                    "orders": [
                        {
                            "code": "2022021645",
                            "customer": "Van Heck Badkamers"
                        }
                    ],
                    "selected": false,
                    "overheadTime": 10,
                    "itemTime": 1
                },
                {
                    "address": {
                        "street": "Stirlingweg 8 (Roldeur 13)",
                        "zipcode": "5466 AV",
                        "city": "Veghel",
                        "country": "Nederland"
                    },
                    "orders": [
                        {
                            "code": "2022021656",
                            "customer": "Primabad BV"
                        },
                        {
                            "code": "2022021657",
                            "customer": "Primabad BV"
                        }
                    ],
                    "selected": false,
                    "overheadTime": 10,
                    "itemTime": 1
                },
                {
                    "address": {
                        "street": "Hoge Balver 19\t",
                        "zipcode": "7207 BR",
                        "city": "Zutphen",
                        "country": "Nederland"
                    },
                    "orders": [
                        {
                            "code": "2022021607",
                            "customer": "Thebalux"
                        },
                        {
                            "code": "2022021636",
                            "customer": "Thebalux"
                        },
                        {
                            "code": "2022021441-001",
                            "customer": "Thebalux"
                        }
                    ],
                    "selected": false,
                    "overheadTime": 10,
                    "itemTime": 1
                },
                {
                    "address": {
                        "street": "Gelderdonksestraat 5",
                        "zipcode": "4891 PD ",
                        "city": "Rijsbergen",
                        "country": "Nederland"
                    },
                    "orders": [
                        {
                            "code": "2022021629",
                            "customer": "Johan Herijgers"
                        },
                        {
                            "code": "2022021641",
                            "customer": "Johan Herijgers"
                        }
                    ],
                    "selected": false
                },
                {
                    "address": {
                        "street": "Schelluinsestraat 39",
                        "zipcode": "4203 NK  ",
                        "city": "Gorinchem",
                        "country": "Nederland"
                    },
                    "orders": [
                        {
                            "code": "2022021623",
                            "customer": "Deli Home"
                        }
                    ],
                    "selected": false
                }
            ],
            "orders": []
        },
        {
            "period": {
                "key": "8a3279f1f4b5224b3f946768b55f5d2a",
                "label": "2022-05-13",
                "date": "2022-05-13"
            },
            "transport": {
                "key": "608edb45ba85aac75025c349df4f805a",
                "label": "Eigen transport vrachtwagen",
                "map": true,
                "calc": false,
                "circ": false,
                "itemTime": 1,
                "overheadTime": 10,
                "total_item_time": 10,
                "selected": false,
                "total_time": null
            },
            "locations": [
                {
                    "address": {
                        "street": "Westerwerf 2",
                        "zipcode": "1911 JA",
                        "city": "Uitgeest",
                        "country": "Nederland"
                    },
                    "orders": [
                        {
                            "code": "2022021405",
                            "customer": "Ton Scholten tegels en sanitair"
                        }
                    ],
                    "selected": false,
                    "overheadTime": 10,
                    "itemTime": 1
                },
                {
                    "address": {
                        "street": "Beesdseweg 2",
                        "zipcode": "4104AW",
                        "city": "Culemborg",
                        "country": "Nederland"
                    },
                    "orders": [
                        {
                            "code": "2022021512",
                            "customer": "Middelkoop Keukens"
                        }
                    ],
                    "selected": false
                },
                {
                    "address": {
                        "street": "Oude Dwingerlerdijk 2 ",
                        "zipcode": "7964 KH ",
                        "city": "Ansen",
                        "country": "Nederland"
                    },
                    "orders": [
                        {
                            "code": "2022021604",
                            "customer": "Studio Volop"
                        }
                    ],
                    "selected": false,
                    "overheadTime": 10,
                    "itemTime": 1
                },
                {
                    "address": {
                        "street": "De Veken 246A",
                        "zipcode": "1716 KJ\t",
                        "city": "Opmeer",
                        "country": "Nederland"
                    },
                    "orders": [
                        {
                            "code": "2022021602",
                            "customer": "Het Keukenmagazijn"
                        }
                    ],
                    "selected": false
                },
                {
                    "address": {
                        "street": "Leeuweriksveldweg 1",
                        "zipcode": "7991SE",
                        "city": "Dwingeloo",
                        "country": "Nederland"
                    },
                    "orders": [
                        {
                            "code": "2022021585",
                            "customer": "Hofman Interieurbouw"
                        }
                    ],
                    "selected": false
                },
                {
                    "address": {
                        "street": "Korte Hoogstraat 12a",
                        "zipcode": "3131BK",
                        "city": "Vlaardingen",
                        "country": "Nederland"
                    },
                    "orders": [
                        {
                            "code": "2021020361",
                            "customer": "Hof der Keukens"
                        }
                    ],
                    "selected": false,
                    "overheadTime": 10,
                    "itemTime": 1
                },
                {
                    "address": {
                        "street": "Korendreef 15",
                        "zipcode": "3241 AS",
                        "city": "Middelharnis",
                        "country": "Nederland"
                    },
                    "orders": [
                        {
                            "code": "2022021580",
                            "customer": "Keukencentrum Tieleman B.V."
                        }
                    ],
                    "selected": false,
                    "overheadTime": 10,
                    "itemTime": 1
                },
                {
                    "address": {
                        "street": "Spectrumlaan 31 ",
                        "zipcode": "2665NM ",
                        "city": " Bleiswijk",
                        "country": "Nederland"
                    },
                    "orders": [
                        {
                            "code": "2022021401",
                            "customer": "BY COCOON LTD"
                        }
                    ],
                    "selected": false,
                    "overheadTime": 10,
                    "itemTime": 1
                },
                {
                    "address": {
                        "street": "Rijksstraatweg 58",
                        "zipcode": "9257 DT",
                        "city": "Noardburgum",
                        "country": "Nederland"
                    },
                    "orders": [
                        {
                            "code": "2022021622",
                            "customer": "De Keukenkamer"
                        }
                    ],
                    "selected": false,
                    "overheadTime": 10,
                    "itemTime": 1
                },
                {
                    "address": {
                        "street": "NVT",
                        "zipcode": "NVT",
                        "city": "NVT",
                        "country": "Nederland"
                    },
                    "orders": [
                        {
                            "code": "2022021638",
                            "customer": "BY COCOON LTD"
                        }
                    ],
                    "selected": false,
                    "overheadTime": 10,
                    "itemTime": 1
                }
            ],
            "orders": []
        },
        {
            "period": {
                "key": "9690ffbcc2702b682b8b7c44a877583e",
                "label": "2022-05-12",
                "date": "2022-05-12"
            },
            "transport": {
                "key": "4045bae84fb1195a5d29fe416f84dcd7",
                "label": "transport LCW",
                "map": false,
                "calc": false,
                "circ": false,
                "itemTime": 1,
                "overheadTime": 10,
                "total_item_time": 10,
                "is_empty": true,
                "selected": false,
                "total_time": 0
            },
            "locations": [],
            "orders": []
        },
        {
            "transport": {
                "key": "4045bae84fb1195a5d29fe416f84dcd7",
                "label": "transport LCW",
                "map": false,
                "calc": false,
                "circ": false,
                "noTransport": true,
                "selected": false,
                "itemTime": 1,
                "overheadTime": 10,
                "total_item_time": 10,
                "total_time": 0
            },
            "period": {
                "key": "eb2f56465cef5eedd5bfa8107350f792",
                "label": "2022-05-11",
                "date": "2022-05-11"
            },
            "locations": [],
            "orders": []
        },
        {
            "period": {
                "key": "8a3279f1f4b5224b3f946768b55f5d2a",
                "label": "2022-05-13",
                "date": "2022-05-13"
            },
            "transport": {
                "key": "4045bae84fb1195a5d29fe416f84dcd7",
                "label": "transport LCW",
                "map": false,
                "calc": false,
                "circ": false,
                "itemTime": 1,
                "overheadTime": 10,
                "total_item_time": 10,
                "selected": false,
                "total_time": 0
            },
            "locations": [],
            "orders": []
        },
        {
            "transport": {
                "key": "751cf938b6352ecdb062658fb166d8c7",
                "label": "halen",
                "map": false,
                "calc": false,
                "circ": false,
                "noTransport": true,
                "is_empty": false,
                "selected": false,
                "itemTime": 1,
                "overheadTime": 10,
                "total_item_time": 10,
                "total_time": 0
            },
            "period": {
                "key": "9690ffbcc2702b682b8b7c44a877583e",
                "label": "2022-05-12",
                "date": "2022-05-12"
            },
            "locations": [],
            "orders": []
        },
        {
            "period": {
                "key": "eb2f56465cef5eedd5bfa8107350f792",
                "label": "2022-05-11",
                "date": "2022-05-11"
            },
            "transport": {
                "key": "751cf938b6352ecdb062658fb166d8c7",
                "label": "halen",
                "map": false,
                "calc": false,
                "circ": false,
                "itemTime": 1,
                "overheadTime": 10,
                "total_item_time": 10,
                "selected": false,
                "total_time": null
            },
            "locations": [
                {
                    "address": {
                        "street": "Spijkerlaan 153",
                        "zipcode": "8791",
                        "city": "Waregem",
                        "country": "België"
                    },
                    "orders": [
                        {
                            "code": "2022021317",
                            "customer": "Detremmerie"
                        }
                    ],
                    "selected": false
                },
                {
                    "address": {
                        "street": "Desco ref Magazijn Industrielaan 31/33",
                        "zipcode": "2900",
                        "city": "schoten",
                        "country": "België"
                    },
                    "orders": [
                        {
                            "code": "2022021522",
                            "customer": "Desco NV"
                        },
                        {
                            "code": "2022021647",
                            "customer": "Desco NV"
                        }
                    ],
                    "selected": false,
                    "overheadTime": 10,
                    "itemTime": 1
                }
            ],
            "orders": []
        },
        {
            "period": {
                "key": "8a3279f1f4b5224b3f946768b55f5d2a",
                "label": "2022-05-13",
                "date": "2022-05-13"
            },
            "transport": {
                "key": "751cf938b6352ecdb062658fb166d8c7",
                "label": "halen",
                "map": false,
                "calc": false,
                "circ": false,
                "itemTime": 1,
                "overheadTime": 10,
                "total_item_time": 10,
                "selected": false,
                "total_time": 0,
                "noTransport": false
            },
            "locations": [],
            "orders": []
        },
        {
            "transport": {
                "key": "92bd4fb49aaf7ea6f7fb4de05a24f9b8",
                "label": "levering GLS",
                "map": false,
                "calc": false,
                "circ": false,
                "noTransport": true,
                "is_empty": false,
                "selected": false,
                "itemTime": 1,
                "overheadTime": 10,
                "total_item_time": 10,
                "total_time": 0
            },
            "period": {
                "key": "9690ffbcc2702b682b8b7c44a877583e",
                "label": "2022-05-12",
                "date": "2022-05-12"
            },
            "locations": [],
            "orders": []
        },
        {
            "transport": {
                "key": "92bd4fb49aaf7ea6f7fb4de05a24f9b8",
                "label": "levering GLS",
                "map": false,
                "calc": false,
                "circ": false,
                "noTransport": true,
                "selected": false,
                "itemTime": 1,
                "overheadTime": 10,
                "total_item_time": 10,
                "total_time": 0
            },
            "period": {
                "key": "eb2f56465cef5eedd5bfa8107350f792",
                "label": "2022-05-11",
                "date": "2022-05-11"
            },
            "locations": [],
            "orders": []
        },
        {
            "period": {
                "key": "8a3279f1f4b5224b3f946768b55f5d2a",
                "label": "2022-05-13",
                "date": "2022-05-13"
            },
            "transport": {
                "key": "92bd4fb49aaf7ea6f7fb4de05a24f9b8",
                "label": "levering GLS",
                "map": false,
                "calc": false,
                "circ": false,
                "itemTime": 1,
                "overheadTime": 10,
                "total_item_time": 10,
                "selected": false,
                "total_time": null
            },
            "locations": [
                {
                    "address": {
                        "street": "Bitswijk 31",
                        "zipcode": "5401JA",
                        "city": "Uden",
                        "country": "Nederland"
                    },
                    "orders": [
                        {
                            "code": "2022021437",
                            "customer": "Verwijst Uden"
                        }
                    ],
                    "selected": false
                },
                {
                    "address": {
                        "street": "Bergse Rechter Rottekade 1",
                        "zipcode": "3051 AB",
                        "city": "Rotterdam",
                        "country": "Nederland"
                    },
                    "orders": [
                        {
                            "code": "2022021648",
                            "customer": "Stone Company Projects BV"
                        }
                    ],
                    "selected": false
                }
            ],
            "orders": []
        },
        {
            "transport": {
                "key": "ad921d60486366258809553a3db49a4a",
                "label": "unknown",
                "map": false,
                "calc": false,
                "circ": false,
                "noTransport": true,
                "is_empty": false,
                "selected": false,
                "itemTime": 1,
                "overheadTime": 10,
                "total_item_time": 10,
                "total_time": 0
            },
            "period": {
                "key": "9690ffbcc2702b682b8b7c44a877583e",
                "label": "2022-05-12",
                "date": "2022-05-12"
            },
            "locations": [],
            "orders": []
        },
        {
            "transport": {
                "key": "ad921d60486366258809553a3db49a4a",
                "label": "unknown",
                "map": false,
                "calc": false,
                "circ": false,
                "noTransport": true,
                "selected": false,
                "itemTime": 1,
                "overheadTime": 10,
                "total_item_time": 10,
                "total_time": 0
            },
            "period": {
                "key": "eb2f56465cef5eedd5bfa8107350f792",
                "label": "2022-05-11",
                "date": "2022-05-11"
            },
            "locations": [],
            "orders": []
        },
        {
            "period": {
                "key": "8a3279f1f4b5224b3f946768b55f5d2a",
                "label": "2022-05-13",
                "date": "2022-05-13"
            },
            "transport": {
                "key": "ad921d60486366258809553a3db49a4a",
                "label": "unknown",
                "map": true,
                "calc": false,
                "circ": false,
                "itemTime": 1,
                "overheadTime": 10,
                "total_item_time": 10,
                "selected": false,
                "total_time": 1048,
                "showTime": true
            },
            "locations": [
                {
                    "address": {
                        "street": "Handelsweg 14",
                        "zipcode": "9482WE",
                        "city": "Tynaarlo",
                        "country": "Nederland"
                    },
                    "orders": [
                        {
                            "code": "2022021637",
                            "customer": "Evolve (Jorrit)"
                        }
                    ],
                    "selected": false,
                    "overheadTime": 10,
                    "itemTime": 1,
                    "locationTime": 11
                }
            ],
            "orders": []
        }
    ],
    "addresses": [
        {
            "address": {
                "street": "Transportweg 6",
                "zipcode": "9482 WN",
                "city": "Tynaarlo",
                "country": "Nederland"
            },
            "orders": [
                {
                    "code": "2021020726",
                    "customer": "Mak interieur -- Tynaarlo"
                }
            ],
            "selected": false,
            "overheadTime": 10,
            "itemTime": 1
        }
    ]
}